[
  {
    "Id": 1,
    "FirstName": "Jordane",
    "LastName": "Walker",
    "Email": "Jordane.Walker@gmail.com",
    "Birthday": "2005-10-29T00:26:53.0193606+03:00",
    "RegisteredAt": "2020-06-24T12:11:10.5691173+03:00",
    "TeamId": 4
  },
  {
    "Id": 2,
    "FirstName": "Kolby",
    "LastName": "Jones",
    "Email": "Kolby_Jones@yahoo.com",
    "Birthday": "2012-01-23T12:37:51.9412291+02:00",
    "RegisteredAt": "2020-06-27T23:20:55.7940233+03:00",
    "TeamId": 5
  },
  {
    "Id": 3,
    "FirstName": "Mabelle",
    "LastName": "Miller",
    "Email": "Mabelle.Miller12@hotmail.com",
    "Birthday": "2015-09-29T18:28:43.7369629+03:00",
    "RegisteredAt": "2020-06-22T15:35:42.5834106+03:00",
    "TeamId": null
  },
  {
    "Id": 4,
    "FirstName": "Verla",
    "LastName": "Bechtelar",
    "Email": "Verla.Bechtelar62@gmail.com",
    "Birthday": "2008-07-14T23:47:23.7087566+03:00",
    "RegisteredAt": "2020-07-01T08:22:15.869556+03:00",
    "TeamId": null
  },
  {
    "Id": 5,
    "FirstName": "Retha",
    "LastName": "Will",
    "Email": "Retha67@yahoo.com",
    "Birthday": "2007-09-20T13:05:41.1527935+03:00",
    "RegisteredAt": "2020-06-23T21:09:18.5038054+03:00",
    "TeamId": 1
  },
  {
    "Id": 6,
    "FirstName": "Roberto",
    "LastName": "Ruecker",
    "Email": "Roberto.Ruecker35@yahoo.com",
    "Birthday": "2007-02-27T01:18:31.1405084+02:00",
    "RegisteredAt": "2020-06-02T02:17:26.4309832+03:00",
    "TeamId": 2
  },
  {
    "Id": 7,
    "FirstName": "Tracy",
    "LastName": "Schinner",
    "Email": "Tracy.Schinner65@gmail.com",
    "Birthday": "2012-07-08T15:00:24.3757499+03:00",
    "RegisteredAt": "2020-06-23T17:37:38.0498331+03:00",
    "TeamId": 5
  },
  {
    "Id": 8,
    "FirstName": "Norma",
    "LastName": "Gislason",
    "Email": "Norma_Gislason@yahoo.com",
    "Birthday": "2003-04-10T23:50:03.5493682+03:00",
    "RegisteredAt": "2020-05-28T20:02:02.295508+03:00",
    "TeamId": null
  },
  {
    "Id": 9,
    "FirstName": "Luisa",
    "LastName": "Lind",
    "Email": "Luisa92@yahoo.com",
    "Birthday": "2019-06-10T05:27:47.4844129+03:00",
    "RegisteredAt": "2020-06-22T22:42:43.764246+03:00",
    "TeamId": 8
  },
  {
    "Id": 10,
    "FirstName": "Edward",
    "LastName": "Kuvalis",
    "Email": "Edward_Kuvalis@yahoo.com",
    "Birthday": "2008-01-01T11:16:36.4548263+02:00",
    "RegisteredAt": "2020-06-03T02:16:31.267727+03:00",
    "TeamId": 4
  },
  {
    "Id": 11,
    "FirstName": "Jayde",
    "LastName": "Pouros",
    "Email": "Jayde22@hotmail.com",
    "Birthday": "2012-09-18T15:52:12.4424499+03:00",
    "RegisteredAt": "2020-06-29T16:40:13.993952+03:00",
    "TeamId": null
  },
  {
    "Id": 12,
    "FirstName": "Sherman",
    "LastName": "Kuhlman",
    "Email": "Sherman_Kuhlman44@hotmail.com",
    "Birthday": "2003-01-30T19:45:04.7477993+02:00",
    "RegisteredAt": "2020-06-12T01:12:48.7118931+03:00",
    "TeamId": 4
  },
  {
    "Id": 13,
    "FirstName": "Issac",
    "LastName": "Rath",
    "Email": "Issac.Rath@gmail.com",
    "Birthday": "2020-04-01T08:47:34.5794826+03:00",
    "RegisteredAt": "2020-06-18T10:48:28.9542609+03:00",
    "TeamId": 8
  },
  {
    "Id": 14,
    "FirstName": "Kirsten",
    "LastName": "Braun",
    "Email": "Kirsten_Braun49@gmail.com",
    "Birthday": "2019-03-31T10:06:27.880072+03:00",
    "RegisteredAt": "2020-06-03T17:20:09.6735222+03:00",
    "TeamId": null
  },
  {
    "Id": 15,
    "FirstName": "Tamara",
    "LastName": "Brakus",
    "Email": "Tamara58@gmail.com",
    "Birthday": "2016-09-05T18:10:36.5090538+03:00",
    "RegisteredAt": "2020-06-08T16:04:31.6144169+03:00",
    "TeamId": null
  },
  {
    "Id": 16,
    "FirstName": "Hilton",
    "LastName": "Kemmer",
    "Email": "Hilton.Kemmer84@gmail.com",
    "Birthday": "2010-11-19T23:50:45.8587891+02:00",
    "RegisteredAt": "2020-07-01T10:00:16.6860452+03:00",
    "TeamId": 1
  },
  {
    "Id": 17,
    "FirstName": "Delmer",
    "LastName": "Wunsch",
    "Email": "Delmer9@gmail.com",
    "Birthday": "2008-04-10T16:16:49.9926847+03:00",
    "RegisteredAt": "2020-05-28T00:57:23.5397637+03:00",
    "TeamId": 2
  },
  {
    "Id": 18,
    "FirstName": "Lupe",
    "LastName": "Harber",
    "Email": "Lupe91@gmail.com",
    "Birthday": "2002-07-26T23:27:55.9827619+03:00",
    "RegisteredAt": "2020-05-22T20:21:56.0998576+03:00",
    "TeamId": null
  },
  {
    "Id": 19,
    "FirstName": "Cedrick",
    "LastName": "Lemke",
    "Email": "Cedrick33@hotmail.com",
    "Birthday": "2004-11-26T08:18:16.7968598+02:00",
    "RegisteredAt": "2020-05-22T07:53:58.617495+03:00",
    "TeamId": null
  },
  {
    "Id": 20,
    "FirstName": "Zane",
    "LastName": "Will",
    "Email": "Zane.Will@yahoo.com",
    "Birthday": "2016-10-17T14:55:25.834367+03:00",
    "RegisteredAt": "2020-06-05T14:13:47.4415614+03:00",
    "TeamId": null
  },
  {
    "Id": 21,
    "FirstName": "Shane",
    "LastName": "Windler",
    "Email": "Shane67@gmail.com",
    "Birthday": "2010-12-24T13:56:04.3738155+02:00",
    "RegisteredAt": "2020-06-13T23:22:28.4865957+03:00",
    "TeamId": null
  },
  {
    "Id": 22,
    "FirstName": "Verdie",
    "LastName": "Gutmann",
    "Email": "Verdie.Gutmann46@hotmail.com",
    "Birthday": "2011-04-09T17:21:10.3784269+03:00",
    "RegisteredAt": "2020-06-21T18:57:15.5372226+03:00",
    "TeamId": 5
  },
  {
    "Id": 23,
    "FirstName": "Abe",
    "LastName": "Dooley",
    "Email": "Abe_Dooley66@gmail.com",
    "Birthday": "2013-08-17T10:11:04.5692094+03:00",
    "RegisteredAt": "2020-06-22T01:43:12.7386212+03:00",
    "TeamId": 5
  },
  {
    "Id": 24,
    "FirstName": "Bud",
    "LastName": "Collins",
    "Email": "Bud.Collins@gmail.com",
    "Birthday": "2012-07-27T09:17:48.5411681+03:00",
    "RegisteredAt": "2020-06-09T21:35:51.8445877+03:00",
    "TeamId": 1
  },
  {
    "Id": 25,
    "FirstName": "Columbus",
    "LastName": "Will",
    "Email": "Columbus.Will64@hotmail.com",
    "Birthday": "2007-08-23T14:25:19.8090383+03:00",
    "RegisteredAt": "2020-06-17T03:38:36.7481173+03:00",
    "TeamId": 5
  },
  {
    "Id": 26,
    "FirstName": "Alfred",
    "LastName": "Ward",
    "Email": "Alfred_Ward44@yahoo.com",
    "Birthday": "2017-11-23T12:03:44.1751693+02:00",
    "RegisteredAt": "2020-06-16T15:02:16.5611785+03:00",
    "TeamId": 4
  },
  {
    "Id": 27,
    "FirstName": "Ada",
    "LastName": "West",
    "Email": "Ada29@hotmail.com",
    "Birthday": "2004-12-25T03:40:31.7580383+02:00",
    "RegisteredAt": "2020-06-12T22:59:15.8381128+03:00",
    "TeamId": 7
  },
  {
    "Id": 28,
    "FirstName": "Germaine",
    "LastName": "Parker",
    "Email": "Germaine_Parker@gmail.com",
    "Birthday": "2011-07-20T23:04:44.5759068+03:00",
    "RegisteredAt": "2020-06-07T10:40:25.1336725+03:00",
    "TeamId": null
  },
  {
    "Id": 29,
    "FirstName": "Dianna",
    "LastName": "Lynch",
    "Email": "Dianna_Lynch@hotmail.com",
    "Birthday": "2010-06-20T06:28:17.6517332+03:00",
    "RegisteredAt": "2020-06-22T06:11:14.5553721+03:00",
    "TeamId": null
  },
  {
    "Id": 30,
    "FirstName": "Hulda",
    "LastName": "Murray",
    "Email": "Hulda.Murray61@yahoo.com",
    "Birthday": "2008-01-27T07:46:06.4542093+02:00",
    "RegisteredAt": "2020-06-26T14:35:49.2600625+03:00",
    "TeamId": 10
  },
  {
    "Id": 31,
    "FirstName": "Beatrice",
    "LastName": "Kerluke",
    "Email": "Beatrice.Kerluke@gmail.com",
    "Birthday": "2008-08-02T06:28:43.1611271+03:00",
    "RegisteredAt": "2020-06-24T01:02:32.0102632+03:00",
    "TeamId": null
  },
  {
    "Id": 32,
    "FirstName": "Rex",
    "LastName": "Gerhold",
    "Email": "Rex90@gmail.com",
    "Birthday": "2016-12-22T12:41:35.7447518+02:00",
    "RegisteredAt": "2020-05-29T02:02:01.1048139+03:00",
    "TeamId": 5
  },
  {
    "Id": 33,
    "FirstName": "Edgar",
    "LastName": "Gislason",
    "Email": "Edgar_Gislason@hotmail.com",
    "Birthday": "2009-03-07T13:16:31.7677527+02:00",
    "RegisteredAt": "2020-06-17T02:08:50.8227785+03:00",
    "TeamId": 5
  },
  {
    "Id": 34,
    "FirstName": "Monserrat",
    "LastName": "Okuneva",
    "Email": "Monserrat_Okuneva@yahoo.com",
    "Birthday": "2019-01-16T22:02:15.2682177+02:00",
    "RegisteredAt": "2020-05-21T01:32:22.6670028+03:00",
    "TeamId": 8
  },
  {
    "Id": 35,
    "FirstName": "Gabrielle",
    "LastName": "Hane",
    "Email": "Gabrielle69@hotmail.com",
    "Birthday": "2020-04-11T05:37:42.5183362+03:00",
    "RegisteredAt": "2020-05-25T03:12:46.6373168+03:00",
    "TeamId": 2
  },
  {
    "Id": 36,
    "FirstName": "Pedro",
    "LastName": "Gleason",
    "Email": "Pedro56@hotmail.com",
    "Birthday": "2018-07-24T19:10:18.4345195+03:00",
    "RegisteredAt": "2020-06-13T09:50:19.5179342+03:00",
    "TeamId": null
  },
  {
    "Id": 37,
    "FirstName": "Alan",
    "LastName": "Bergnaum",
    "Email": "Alan_Bergnaum@gmail.com",
    "Birthday": "2011-08-19T03:38:48.4703814+03:00",
    "RegisteredAt": "2020-06-11T19:20:36.9918256+03:00",
    "TeamId": 2
  },
  {
    "Id": 38,
    "FirstName": "Winston",
    "LastName": "Rutherford",
    "Email": "Winston_Rutherford@hotmail.com",
    "Birthday": "2011-10-31T18:40:07.6875966+02:00",
    "RegisteredAt": "2020-05-31T10:55:57.6050218+03:00",
    "TeamId": 5
  },
  {
    "Id": 39,
    "FirstName": "Jed",
    "LastName": "Batz",
    "Email": "Jed.Batz@hotmail.com",
    "Birthday": "2013-11-10T08:35:50.156348+02:00",
    "RegisteredAt": "2020-06-20T06:11:11.9245305+03:00",
    "TeamId": 2
  },
  {
    "Id": 40,
    "FirstName": "Bernadine",
    "LastName": "Zemlak",
    "Email": "Bernadine_Zemlak14@hotmail.com",
    "Birthday": "2006-06-03T11:58:29.3213232+03:00",
    "RegisteredAt": "2020-06-26T15:13:46.9100765+03:00",
    "TeamId": 7
  },
  {
    "Id": 41,
    "FirstName": "Dangelo",
    "LastName": "Howell",
    "Email": "Dangelo41@hotmail.com",
    "Birthday": "2017-01-31T17:11:32.748917+02:00",
    "RegisteredAt": "2020-06-25T19:11:58.8758216+03:00",
    "TeamId": null
  },
  {
    "Id": 42,
    "FirstName": "Dewitt",
    "LastName": "Blick",
    "Email": "Dewitt70@hotmail.com",
    "Birthday": "2004-05-20T14:52:10.0460727+03:00",
    "RegisteredAt": "2020-05-28T05:19:58.3211503+03:00",
    "TeamId": 4
  },
  {
    "Id": 43,
    "FirstName": "Carolina",
    "LastName": "Schulist",
    "Email": "Carolina_Schulist@yahoo.com",
    "Birthday": "2002-11-25T16:28:14.6361691+02:00",
    "RegisteredAt": "2020-05-22T13:11:03.0933909+03:00",
    "TeamId": 7
  },
  {
    "Id": 44,
    "FirstName": "Raegan",
    "LastName": "Flatley",
    "Email": "Raegan_Flatley75@hotmail.com",
    "Birthday": "2005-06-04T19:14:28.8720146+03:00",
    "RegisteredAt": "2020-06-22T14:59:33.6871371+03:00",
    "TeamId": 10
  },
  {
    "Id": 45,
    "FirstName": "Ernest",
    "LastName": "Ryan",
    "Email": "Ernest_Ryan6@gmail.com",
    "Birthday": "2005-03-14T01:15:55.3150845+02:00",
    "RegisteredAt": "2020-06-13T11:07:49.1606262+03:00",
    "TeamId": null
  },
  {
    "Id": 46,
    "FirstName": "Cleve",
    "LastName": "Greenholt",
    "Email": "Cleve40@gmail.com",
    "Birthday": "2018-09-29T13:12:37.8560083+03:00",
    "RegisteredAt": "2020-05-26T22:39:37.5032854+03:00",
    "TeamId": 4
  },
  {
    "Id": 47,
    "FirstName": "Kelsie",
    "LastName": "Harvey",
    "Email": "Kelsie16@gmail.com",
    "Birthday": "2016-01-14T10:30:08.8231018+02:00",
    "RegisteredAt": "2020-06-01T13:32:48.5838304+03:00",
    "TeamId": 8
  },
  {
    "Id": 48,
    "FirstName": "Clemens",
    "LastName": "Dare",
    "Email": "Clemens63@yahoo.com",
    "Birthday": "2011-04-16T05:06:48.6269115+03:00",
    "RegisteredAt": "2020-05-23T17:21:58.2044981+03:00",
    "TeamId": null
  },
  {
    "Id": 49,
    "FirstName": "Vernie",
    "LastName": "Hodkiewicz",
    "Email": "Vernie5@gmail.com",
    "Birthday": "2013-01-02T13:11:28.888461+02:00",
    "RegisteredAt": "2020-06-03T07:13:47.0361354+03:00",
    "TeamId": 8
  },
  {
    "Id": 50,
    "FirstName": "Jermain",
    "LastName": "Leffler",
    "Email": "Jermain_Leffler@hotmail.com",
    "Birthday": "2007-09-27T03:55:50.6308712+03:00",
    "RegisteredAt": "2020-06-01T19:41:43.9018228+03:00",
    "TeamId": null
  }
]
